<!-- Icon from BoxIcons - MIT license - https://boxicons.com/usage#license -->
<svg xmlns="http://www.w3.org/2000/svg" width="24" height="24" viewBox="0 0 24 24"
    style="fill: rgba(0, 0, 0, 1);transform: ;msFilter:;">
    <path
        d="M8.293 6.293 2.586 12l5.707 5.707 1.414-1.414L5.414 12l4.293-4.293zm7.414 11.414L21.414 12l-5.707-5.707-1.414 1.414L18.586 12l-4.293 4.293z">
    </path>
</svg>